%YAML 1.1
%TAG !u! tag:unity3d.com,2011:
--- !u!687078895 &4343727234628468602
SpriteAtlas:
  m_ObjectHideFlags: 0
  m_PrefabParentObject: {fileID: 0}
  m_PrefabInternal: {fileID: 0}
  m_Name: ItemAtlas#1
  m_EditorData:
    textureSettings:
      serializedVersion: 2
      anisoLevel: 1
      compressionQuality: 50
      maxTextureSize: 2048
      textureCompression: 1
      filterMode: 1
      generateMipMaps: 0
      readable: 0
      crunchedCompression: 0
      sRGB: 0
    platformSettings: []
    packingParameters:
      serializedVersion: 2
      padding: 2
      blockOffset: 1
      allowAlphaSplitting: 0
      enableRotation: 1
      enableTightPacking: 1
    variantMultiplier: 1
    packables:
    - {fileID: 2800000, guid: 9a981482564ec0b4090dd3e9b643b857, type: 3}
    - {fileID: 2800000, guid: b054e7f853bb1994da9e7a44e4664027, type: 3}
    - {fileID: 2800000, guid: 97cb8b44a375a70488df6da3b495a8a3, type: 3}
    - {fileID: 2800000, guid: e2a170be31da37a44987fe2d9a0d218e, type: 3}
    - {fileID: 2800000, guid: ca314ddb99577c84584d275e08f80cc5, type: 3}
    - {fileID: 2800000, guid: 317ae0c52099f9a4b92f1c2947af38ba, type: 3}
    - {fileID: 2800000, guid: 61b2f6a1e89ea604983fec5c8f230272, type: 3}
    - {fileID: 2800000, guid: aaecfcc132774254f8b2865699b57296, type: 3}
    - {fileID: 2800000, guid: 62af7ccfda976584dbe6c04698599f3c, type: 3}
    bindAsDefault: 1
  m_MasterAtlas: {fileID: 0}
  m_PackedSprites:
  - {fileID: 21300000, guid: 317ae0c52099f9a4b92f1c2947af38ba, type: 3}
  - {fileID: 21300000, guid: 62af7ccfda976584dbe6c04698599f3c, type: 3}
  - {fileID: 21300000, guid: 97cb8b44a375a70488df6da3b495a8a3, type: 3}
  - {fileID: 21300000, guid: aaecfcc132774254f8b2865699b57296, type: 3}
  - {fileID: 21300000, guid: ca314ddb99577c84584d275e08f80cc5, type: 3}
  - {fileID: 21300000, guid: 9a981482564ec0b4090dd3e9b643b857, type: 3}
  - {fileID: 21300000, guid: e2a170be31da37a44987fe2d9a0d218e, type: 3}
  - {fileID: 21300000, guid: 61b2f6a1e89ea604983fec5c8f230272, type: 3}
  - {fileID: 21300000, guid: b054e7f853bb1994da9e7a44e4664027, type: 3}
  m_PackedSpriteNamesToIndex:
  - Mop_3
  - Rag_2
  - DustPan
  - Rag_1
  - Mop_2
  - Mop_1
  - CleanLiquid
  - Mop_4
  - DustPan_Side
  m_Tag: ItemAtlas#1
  m_IsVariant: 0
