%YAML 1.1
%TAG !u! tag:unity3d.com,2011:
--- !u!687078895 &4343727234628468602
SpriteAtlas:
  m_ObjectHideFlags: 0
  m_PrefabParentObject: {fileID: 0}
  m_PrefabInternal: {fileID: 0}
  m_Name: UI_Atlas#1
  m_EditorData:
    textureSettings:
      serializedVersion: 2
      anisoLevel: 1
      compressionQuality: 0
      maxTextureSize: 2048
      textureCompression: 3
      filterMode: 1
      generateMipMaps: 0
      readable: 0
      crunchedCompression: 0
      sRGB: 0
    platformSettings: []
    packingParameters:
      serializedVersion: 2
      padding: 4
      blockOffset: 1
      allowAlphaSplitting: 0
      enableRotation: 1
      enableTightPacking: 1
    variantMultiplier: 1
    packables:
    - {fileID: 2800000, guid: b94906de0fdb5b542988faa8c762db00, type: 3}
    bindAsDefault: 1
  m_MasterAtlas: {fileID: 0}
  m_PackedSprites:
  - {fileID: 21300006, guid: b94906de0fdb5b542988faa8c762db00, type: 3}
  - {fileID: 21300016, guid: b94906de0fdb5b542988faa8c762db00, type: 3}
  - {fileID: 21300014, guid: b94906de0fdb5b542988faa8c762db00, type: 3}
  - {fileID: 21300004, guid: b94906de0fdb5b542988faa8c762db00, type: 3}
  - {fileID: 21300012, guid: b94906de0fdb5b542988faa8c762db00, type: 3}
  - {fileID: 21300032, guid: b94906de0fdb5b542988faa8c762db00, type: 3}
  - {fileID: 21300040, guid: b94906de0fdb5b542988faa8c762db00, type: 3}
  - {fileID: 21300028, guid: b94906de0fdb5b542988faa8c762db00, type: 3}
  - {fileID: 21300020, guid: b94906de0fdb5b542988faa8c762db00, type: 3}
  - {fileID: 21300034, guid: b94906de0fdb5b542988faa8c762db00, type: 3}
  - {fileID: 21300024, guid: b94906de0fdb5b542988faa8c762db00, type: 3}
  - {fileID: 21300022, guid: b94906de0fdb5b542988faa8c762db00, type: 3}
  - {fileID: 21300036, guid: b94906de0fdb5b542988faa8c762db00, type: 3}
  - {fileID: 21300002, guid: b94906de0fdb5b542988faa8c762db00, type: 3}
  - {fileID: 21300018, guid: b94906de0fdb5b542988faa8c762db00, type: 3}
  - {fileID: 21300030, guid: b94906de0fdb5b542988faa8c762db00, type: 3}
  - {fileID: 21300000, guid: b94906de0fdb5b542988faa8c762db00, type: 3}
  - {fileID: 21300010, guid: b94906de0fdb5b542988faa8c762db00, type: 3}
  - {fileID: 21300038, guid: b94906de0fdb5b542988faa8c762db00, type: 3}
  - {fileID: 21300026, guid: b94906de0fdb5b542988faa8c762db00, type: 3}
  - {fileID: 21300008, guid: b94906de0fdb5b542988faa8c762db00, type: 3}
  m_PackedSpriteNamesToIndex:
  - ProfilePageUI_BlankBGBig
  - ProfilePageUI_ProfilePicture_BG
  - ProfilePageUI_ProfilePicture_Mask
  - ProfilePageUI_Input_Field
  - ProfilePageUI_Sound_On
  - ProfilePageUI_Back_Pressed
  - ProfilePageUI_1
  - ProfilePageUI_Back
  - ProfilePageUI_Sound_Off_Selected
  - ProfilePageUI_Achievement
  - ProfilePageUI_Music_On_Selected
  - ProfilePageUI_Music_Off_Selected
  - ProfilePageUI_Achievement_Pressed
  - ProfilePageUI_Musid_On
  - ProfilePageUI_Sound_On_Selected
  - ProfilePageUI_Camera_Pressed
  - ProfilePageUI_Musid_Off
  - ProfilePageUI_Sound_Off
  - ProfilePageUI_0
  - ProfilePageUI_Camera
  - ProfilePageUI_BlankBG
  m_Tag: UI_Atlas#1
  m_IsVariant: 0
