%YAML 1.1
%TAG !u! tag:unity3d.com,2011:
--- !u!687078895 &4343727234628468602
SpriteAtlas:
  m_ObjectHideFlags: 0
  m_PrefabParentObject: {fileID: 0}
  m_PrefabInternal: {fileID: 0}
  m_Name: UI_Atlas#3
  m_EditorData:
    textureSettings:
      serializedVersion: 2
      anisoLevel: 1
      compressionQuality: 50
      maxTextureSize: 2048
      textureCompression: 3
      filterMode: 1
      generateMipMaps: 0
      readable: 0
      crunchedCompression: 0
      sRGB: 0
    platformSettings: []
    packingParameters:
      serializedVersion: 2
      padding: 2
      blockOffset: 1
      allowAlphaSplitting: 0
      enableRotation: 1
      enableTightPacking: 1
    variantMultiplier: 1
    packables:
    - {fileID: 2800000, guid: 7eb0f2cbb5220ac4caa7dbe7b342d78f, type: 3}
    - {fileID: 2800000, guid: 707a8bca136c13a4792287035f20e988, type: 3}
    bindAsDefault: 1
  m_MasterAtlas: {fileID: 0}
  m_PackedSprites:
  - {fileID: 21300010, guid: 7eb0f2cbb5220ac4caa7dbe7b342d78f, type: 3}
  - {fileID: 21300006, guid: 7eb0f2cbb5220ac4caa7dbe7b342d78f, type: 3}
  - {fileID: 21300008, guid: 7eb0f2cbb5220ac4caa7dbe7b342d78f, type: 3}
  - {fileID: 21300004, guid: 7eb0f2cbb5220ac4caa7dbe7b342d78f, type: 3}
  - {fileID: 21300002, guid: 7eb0f2cbb5220ac4caa7dbe7b342d78f, type: 3}
  - {fileID: 21300000, guid: 7eb0f2cbb5220ac4caa7dbe7b342d78f, type: 3}
  - {fileID: 21300008, guid: 707a8bca136c13a4792287035f20e988, type: 3}
  - {fileID: 21300010, guid: 707a8bca136c13a4792287035f20e988, type: 3}
  - {fileID: 21300004, guid: 707a8bca136c13a4792287035f20e988, type: 3}
  - {fileID: 21300006, guid: 707a8bca136c13a4792287035f20e988, type: 3}
  - {fileID: 21300000, guid: 707a8bca136c13a4792287035f20e988, type: 3}
  - {fileID: 21300002, guid: 707a8bca136c13a4792287035f20e988, type: 3}
  m_PackedSpriteNamesToIndex:
  - UI_2_5
  - UI_2_3
  - UI_2_4
  - UI_2_2
  - UI_2_1
  - UI_2_0
  - UI_3_4
  - UI_3_5
  - UI_3_2
  - UI_3_3
  - UI_3_0
  - UI_3_1
  m_Tag: UI_Atlas#3
  m_IsVariant: 0
